{
    "key": "group_62a838e810642",
    "title": "Blocks - Levels of Study Courses",
    "fields": [
        {
            "key": "field_62a838e813d80",
            "label": "Levels of Study Courses",
            "name": "block",
            "type": "group",
            "instructions": "",
            "required": 0,
            "conditional_logic": 0,
            "wrapper": {
                "width": "",
                "class": "",
                "id": ""
            },
            "layout": "block",
            "sub_fields": [
                {
                    "key": "field_62a838e815036",
                    "label": "Guide",
                    "name": "",
                    "type": "message",
                    "instructions": "",
                    "required": 0,
                    "conditional_logic": 0,
                    "wrapper": {
                        "width": "",
                        "class": "",
                        "id": ""
                    },
                    "message": "Show courses based on selected level of study",
                    "new_lines": "wpautop",
                    "esc_html": 0
                },
                {
                    "key": "field_62a838e815061",
                    "label": "Heading",
                    "name": "heading",
                    "type": "text",
                    "instructions": "",
                    "required": 0,
                    "conditional_logic": 0,
                    "wrapper": {
                        "width": "",
                        "class": "",
                        "id": ""
                    },
                    "default_value": "",
                    "placeholder": "",
                    "prepend": "",
                    "append": "",
                    "maxlength": ""
                },
                {
                    "key": "field_62a838e815066",
                    "label": "Level of Study",
                    "name": "level_of_study",
                    "type": "taxonomy",
                    "instructions": "",
                    "required": 0,
                    "conditional_logic": 0,
                    "wrapper": {
                        "width": "",
                        "class": "",
                        "id": ""
                    },
                    "taxonomy": "level_of_study",
                    "field_type": "select",
                    "allow_null": 0,
                    "add_term": 0,
                    "save_terms": 1,
                    "load_terms": 0,
                    "return_format": "object",
                    "multiple": 0
                },
                {
                    "key": "field_62e08a0e5f1a8",
                    "label": "Show Discipline Filters?",
                    "name": "show_filters",
                    "type": "button_group",
                    "instructions": "",
                    "required": 0,
                    "conditional_logic": 0,
                    "wrapper": {
                        "width": "",
                        "class": "",
                        "id": ""
                    },
                    "choices": {
                        "on": "On",
                        "off": "Off"
                    },
                    "allow_null": 0,
                    "default_value": "off",
                    "layout": "horizontal",
                    "return_format": "value"
                }
            ]
        }
    ],
    "location": [
        [
            {
                "param": "block",
                "operator": "==",
                "value": "acf\/levels-of-study-courses"
            }
        ]
    ],
    "menu_order": 0,
    "position": "normal",
    "style": "default",
    "label_placement": "top",
    "instruction_placement": "label",
    "hide_on_screen": "",
    "active": true,
    "description": "",
    "modified": 1658884583
}